<?xml version="1.0" encoding="UTF-8" standalone="no"?>
<!-- Created with Inkscape (http://www.inkscape.org/) -->

<svg
   width="1100"
   height="1100"
   viewBox="0 0 291.04167 291.04167"
   version="1.1"
   id="svg5"
   sodipodi:docname="conpac-logo.svg"
   inkscape:version="1.2.1 (, )"
   inkscape:export-filename="conpac-logo.png"
   inkscape:export-xdpi="163.84"
   inkscape:export-ydpi="163.84"
   xmlns:inkscape="http://www.inkscape.org/namespaces/inkscape"
   xmlns:sodipodi="http://sodipodi.sourceforge.net/DTD/sodipodi-0.dtd"
   xmlns="http://www.w3.org/2000/svg"
   xmlns:svg="http://www.w3.org/2000/svg">
  <sodipodi:namedview
     id="namedview7"
     pagecolor="#ffffff"
     bordercolor="#000000"
     borderopacity="0.25"
     inkscape:showpageshadow="2"
     inkscape:pageopacity="0.0"
     inkscape:pagecheckerboard="true"
     inkscape:deskcolor="#d1d1d1"
     inkscape:document-units="px"
     showgrid="false"
     inkscape:zoom="0.5"
     inkscape:cx="447"
     inkscape:cy="549"
     inkscape:window-width="1220"
     inkscape:window-height="734"
     inkscape:window-x="0"
     inkscape:window-y="0"
     inkscape:window-maximized="0"
     inkscape:current-layer="layer1" />
  <defs
     id="defs2">
    <filter
       inkscape:collect="always"
       style="color-interpolation-filters:sRGB"
       id="filter4239"
       x="-0.067690479"
       y="-0.080026037"
       width="1.135381"
       height="1.1600521">
      <feGaussianBlur
         inkscape:collect="always"
         stdDeviation="2.6466935"
         id="feGaussianBlur4241" />
    </filter>
  </defs>
  <g
     inkscape:label="Layer 1"
     inkscape:groupmode="layer"
     id="layer1"
     transform="translate(13.229165,13.229165)">
    <rect
       style="opacity:1;fill:#ffffff;fill-opacity:1;stroke-width:0.291041"
       id="rect1858"
       width="291.04166"
       height="291.04166"
       x="-13.229165"
       y="-13.229165" />
    <g
       id="g1084">
      <path
         id="rect266"
         style="fill:#ff5a5a;fill-opacity:1;stroke-width:0.264583"
         d="M 26.458333,0 C 11.845859,-5.5228258e-7 0,11.845859 0,26.458333 V 52.916666 C 0,67.529139 11.84586,79.374999 26.458333,79.374999 H 52.916666 A 26.458332,26.458332 0 0 0 79.374999,52.916666 H 52.916666 26.458333 V 26.458333 H 52.916666 79.374999 A 26.458332,26.458332 0 0 0 52.916666,0 Z" />
      <path
         id="rect433"
         style="fill:#5aff5a;fill-opacity:1;stroke-width:0.490409"
         d="M 119.0625,0 C 104.44997,-1.6568544e-6 92.604165,11.845798 92.604165,26.458333 v 26.458334 c 0,14.612534 11.845805,26.458331 26.458335,26.458331 h 26.45833 c 14.61253,0 26.45833,-11.845799 26.45833,-26.458331 V 26.458333 C 171.97916,11.8458 160.13336,1.1045695e-6 145.52083,0 Z m 0,26.458333 h 26.45833 V 52.916667 H 119.0625 Z"
         sodipodi:nodetypes="sssssssssccccc" />
      <path
         id="rect440"
         style="fill:#5a5aff;fill-opacity:1;stroke-width:0.264583"
         d="m 185.20833,0 v 79.374998 h 26.45833 V 26.458333 H 238.125 v 52.916665 h 26.45833 V 26.458333 C 264.58333,11.8458 252.73753,1.1045695e-6 238.125,0 Z"
         sodipodi:nodetypes="cccccccssc" />
      <path
         id="rect447"
         style="fill:#ff5a5a;fill-opacity:1;stroke-width:0.264583"
         d="m 0,92.604166 v 79.375004 h 26.458333 v -26.45834 h 26.458333 c 14.612533,0 26.458332,-11.8458 26.458333,-26.45833 -10e-7,-14.61253 -11.8458,-26.458334 -26.458333,-26.458334 z"
         sodipodi:nodetypes="ccccsssc" />
      <path
         id="rect454"
         style="fill:#5aff5a;fill-opacity:1;stroke-width:0.305514"
         d="M 119.0625,92.604166 A 26.458332,26.458332 0 0 0 92.604165,119.0625 v 26.45833 a 26.458332,26.458332 0 0 0 26.458335,26.45834 h 26.45833 26.45833 V 119.0625 A 26.458332,26.458332 0 0 0 145.52083,92.604166 Z m 0,26.458334 h 26.45833 v 26.45833 H 119.0625 Z" />
      <path
         id="path816"
         style="fill:#5a5aff;fill-opacity:1;stroke-width:0.264583"
         d="m 211.66666,92.604166 c -14.61247,0 -26.45833,11.845864 -26.45833,26.458334 v 26.45833 c 0,14.61248 11.84586,26.45834 26.45833,26.45834 H 238.125 a 26.458332,26.458332 0 0 0 26.45833,-26.45834 H 238.125 211.66666 V 119.0625 H 238.125 264.58333 A 26.458332,26.458332 0 0 0 238.125,92.604166 Z" />
    </g>
    <path
       id="path1888"
       style="fill:none;fill-opacity:1;stroke:none;stroke-width:5.29167;stroke-dasharray:none;stroke-opacity:1"
       d="M 26.458333,185.20833 A 26.458332,26.458332 0 0 0 2.2288045,201.08333 26.458332,26.458332 0 0 0 0,211.66666 v 5.29167 15.875 5.29167 a 26.458332,26.458332 0 0 0 2.2288045,10.58333 26.458332,26.458332 0 0 0 24.2295285,15.875 H 238.125 a 26.458332,26.458332 0 0 0 24.22953,-15.875 26.458332,26.458332 0 0 0 2.2288,-10.58333 v -5.29167 -15.875 -5.29167 a 26.458332,26.458332 0 0 0 -2.20917,-10.58333 26.458332,26.458332 0 0 0 -24.24916,-15.875 z" />
    <g
       id="g1917"
       style="fill:none;stroke:#333333;stroke-width:6.35;stroke-dasharray:none">
      <path
         id="path1905"
         style="fill:none;stroke:#333333;stroke-width:6.35;stroke-dasharray:none"
         d="M 26.458333,0 C 11.845859,-5.5228258e-7 0,11.845859 0,26.458333 V 52.916666 C 0,67.529139 11.84586,79.374999 26.458333,79.374999 H 52.916666 A 26.458332,26.458332 0 0 0 79.374999,52.916666 H 52.916666 26.458333 V 26.458333 H 52.916666 79.374999 A 26.458332,26.458332 0 0 0 52.916666,0 Z" />
      <path
         id="path1907"
         style="fill:none;stroke:#333333;stroke-width:6.35;stroke-dasharray:none"
         d="M 119.0625,0 C 104.44997,-1.6568544e-6 92.604165,11.845798 92.604165,26.458333 v 26.458334 c 0,14.612534 11.845805,26.458331 26.458335,26.458331 h 26.45833 c 14.61253,0 26.45833,-11.845799 26.45833,-26.458331 V 26.458333 C 171.97916,11.8458 160.13336,1.1045695e-6 145.52083,0 Z m 0,26.458333 h 26.45833 V 52.916667 H 119.0625 Z"
         sodipodi:nodetypes="sssssssssccccc" />
      <path
         id="path1909"
         style="fill:none;stroke:#333333;stroke-width:6.35;stroke-dasharray:none"
         d="m 185.20833,0 v 79.374998 h 26.45833 V 26.458333 H 238.125 v 52.916665 h 26.45833 V 26.458333 C 264.58333,11.8458 252.73753,1.1045695e-6 238.125,0 Z"
         sodipodi:nodetypes="cccccccssc" />
      <path
         id="path1911"
         style="fill:none;stroke:#333333;stroke-width:6.35;stroke-dasharray:none"
         d="m 0,92.604166 v 79.375004 h 26.458333 v -26.45834 h 26.458333 c 14.612533,0 26.458332,-11.8458 26.458333,-26.45833 -10e-7,-14.61253 -11.8458,-26.458334 -26.458333,-26.458334 z"
         sodipodi:nodetypes="ccccsssc" />
      <path
         id="path1913"
         style="fill:none;stroke:#333333;stroke-width:6.35;stroke-dasharray:none"
         d="M 119.0625,92.604166 A 26.458332,26.458332 0 0 0 92.604165,119.0625 v 26.45833 a 26.458332,26.458332 0 0 0 26.458335,26.45834 h 26.45833 26.45833 V 119.0625 A 26.458332,26.458332 0 0 0 145.52083,92.604166 Z m 0,26.458334 h 26.45833 v 26.45833 H 119.0625 Z" />
      <path
         id="path1915"
         style="opacity:1;fill:none;stroke:#333333;stroke-width:6.35;stroke-dasharray:none"
         d="m 211.66666,92.604166 c -14.61247,0 -26.45833,11.845864 -26.45833,26.458334 v 26.45833 c 0,14.61248 11.84586,26.45834 26.45833,26.45834 H 238.125 a 26.458332,26.458332 0 0 0 26.45833,-26.45834 H 238.125 211.66666 V 119.0625 H 238.125 264.58333 A 26.458332,26.458332 0 0 0 238.125,92.604166 Z" />
    </g>
    <g
       id="g2288"
       transform="matrix(1,0,0,0.9257191,0,16.705465)">
      <g
         id="g4037">
        <path
           id="rect987"
           style="fill:#5a5aff;fill-opacity:1;stroke-width:0.916542"
           d="M 26.458335,185.20833 A 26.458332,26.458332 0 0 0 2.2288059,201.08333 26.458332,26.458332 0 0 0 1.3333333e-6,211.66667 v 5.29166 15.875 5.29167 A 26.458332,26.458332 0 0 0 2.2288059,248.70833 a 26.458332,26.458332 0 0 0 24.2295291,15.875 h 66.145833 c 39.687422,3e-5 39.687582,-79.375 79.375002,-79.375 z" />
        <path
           id="path1036"
           style="fill:#5affff;fill-opacity:1;stroke:none;stroke-width:5.29167;stroke-dasharray:none"
           d="M 26.458335,185.20833 A 26.458332,26.458332 0 0 0 2.2288059,201.08333 26.458332,26.458332 0 0 0 1.3333333e-6,211.66667 v 5.29166 15.875 5.29167 A 26.458332,26.458332 0 0 0 2.2288059,248.70833 H 26.458335 50.687863 118.84701 c 16.71247,-23.16314 24.83816,-63.5 53.13216,-63.5 z" />
        <path
           id="rect914"
           style="fill:#5aff5a;fill-opacity:1;stroke:none;stroke-width:5.29167;stroke-dasharray:none"
           d="M 26.458335,185.20833 A 26.458332,26.458332 0 0 0 2.2288059,201.08333 26.458332,26.458332 0 0 0 1.3333333e-6,211.66667 v 5.29166 15.875 H 128.27021 c 11.45623,-22.10159 21.20196,-47.625 43.70896,-47.625 z" />
        <path
           id="path1034"
           style="fill:#ffff5a;fill-opacity:1;stroke:none;stroke-width:5.29167;stroke-dasharray:none"
           d="M 26.458335,185.20833 A 26.458332,26.458332 0 0 0 2.2288059,201.08333 26.458332,26.458332 0 0 0 1.3333333e-6,211.66667 v 5.29166 H 0.5508721 52.365797 136.31313 c 8.74496,-16.87097 18.48561,-31.75 35.66604,-31.75 z" />
        <path
           id="rect985"
           style="fill:#ff5a5a;fill-opacity:1;stroke:none;stroke-width:5.29167;stroke-dasharray:none"
           d="m 26.458335,185.20833 a 26.458332,26.458332 0 0 0 -24.2295291,15.875 H 26.458335 50.707501 145.73633 c 6.72976,-9.32732 14.84942,-15.875 26.24284,-15.875 z" />
      </g>
      <g
         id="g4049"
         transform="rotate(180,132.29167,224.89583)">
        <path
           id="path4039"
           style="fill:#5a5aff;fill-opacity:1;stroke-width:0.916542"
           d="M 26.458335,185.20833 A 26.458332,26.458332 0 0 0 2.2288059,201.08333 26.458332,26.458332 0 0 0 1.3333333e-6,211.66667 v 5.29166 15.875 5.29167 A 26.458332,26.458332 0 0 0 2.2288059,248.70833 a 26.458332,26.458332 0 0 0 24.2295291,15.875 h 66.145833 c 39.687422,3e-5 39.687582,-79.375 79.375002,-79.375 z" />
        <path
           id="path4041"
           style="fill:#5affff;fill-opacity:1;stroke:none;stroke-width:5.29167;stroke-dasharray:none"
           d="M 26.458335,185.20833 A 26.458332,26.458332 0 0 0 2.2288059,201.08333 26.458332,26.458332 0 0 0 1.3333333e-6,211.66667 v 5.29166 15.875 5.29167 A 26.458332,26.458332 0 0 0 2.2288059,248.70833 H 26.458335 50.687863 118.84701 c 16.71247,-23.16314 24.83816,-63.5 53.13216,-63.5 z" />
        <path
           id="path4043"
           style="fill:#5aff5a;fill-opacity:1;stroke:none;stroke-width:5.29167;stroke-dasharray:none"
           d="M 26.458335,185.20833 A 26.458332,26.458332 0 0 0 2.2288059,201.08333 26.458332,26.458332 0 0 0 1.3333333e-6,211.66667 v 5.29166 15.875 H 128.27021 c 11.45623,-22.10159 21.20196,-47.625 43.70896,-47.625 z" />
        <path
           id="path4045"
           style="fill:#ffff5a;fill-opacity:1;stroke:none;stroke-width:5.29167;stroke-dasharray:none"
           d="M 26.458335,185.20833 A 26.458332,26.458332 0 0 0 2.2288059,201.08333 26.458332,26.458332 0 0 0 1.3333333e-6,211.66667 v 5.29166 H 0.5508721 52.365797 136.31313 c 8.74496,-16.87097 18.48561,-31.75 35.66604,-31.75 z" />
        <path
           id="path4047"
           style="fill:#ff5a5a;fill-opacity:1;stroke:none;stroke-width:5.29167;stroke-dasharray:none"
           d="m 26.458335,185.20833 a 26.458332,26.458332 0 0 0 -24.2295291,15.875 H 26.458335 50.707501 145.73633 c 6.72976,-9.32732 14.84942,-15.875 26.24284,-15.875 z" />
      </g>
    </g>
    <path
       id="path4236"
       style="opacity:1;fill:#000000;fill-opacity:0.290196;stroke:none;stroke-width:6.35;stroke-dasharray:none;stroke-opacity:1;filter:url(#filter4239)"
       d="m 92.604179,264.5833 c 39.687491,3e-5 39.687491,-79.37497 79.374991,-79.37497 m 0,0 h -14.46486 c -39.6875,0 -39.6875,79.375 -79.374989,79.37497 h 14.464858"
       sodipodi:nodetypes="cccscc" />
    <path
       id="path3599"
       style="fill:none;fill-opacity:1;stroke:#333333;stroke-width:6.35;stroke-dasharray:none"
       d="M 26.458333,185.20833 A 26.458332,26.458332 0 0 0 2.2288045,201.08333 26.458332,26.458332 0 0 0 0,211.66666 v 5.29167 15.875 5.29167 a 26.458332,26.458332 0 0 0 2.2288045,10.58333 26.458332,26.458332 0 0 0 24.2295285,15.875 H 238.125 a 26.458332,26.458332 0 0 0 24.22953,-15.875 26.458332,26.458332 0 0 0 2.2288,-10.58333 v -5.29167 -15.875 -5.29167 a 26.458332,26.458332 0 0 0 -2.20917,-10.58333 26.458332,26.458332 0 0 0 -24.24916,-15.875 z" />
    <path
       style="opacity:1;fill:none;fill-opacity:1;stroke:#333333;stroke-width:6.35;stroke-dasharray:none;stroke-opacity:1"
       d="m 92.604169,264.5833 c 39.687501,3e-5 39.687501,-79.37497 79.375001,-79.37497"
       id="path3888"
       sodipodi:nodetypes="cc" />
  </g>
</svg>
